dump.vcd
$date
	Wed Jul 24 16:00:46 2024
$end

$version
	Synopsys VCS version O-2018.09-SP1
$end

$timescale
	1ps
$end

$comment Csum: 1 8c482c5e47f367b0 $end


$scope module tb $end
$var reg 1 ! clk $end
$var reg 1 " rst_n $end
$var reg 1 # cs $end
$var reg 1 $ wr_rd_n $end
$var reg 10 % addr [9:0] $end
$var reg 10 & addr_in [9:0] $end
$var wire 8 ' data [7:0] $end
$var reg 8 ( data_in [7:0] $end
$var reg 8 ) data_r [7:0] $end

$scope begin unnamed$$_vcs_3 $end
$upscope $end


$scope begin unnamed$$_vcs_0 $end
$upscope $end


$scope begin unnamed$$_vcs_1 $end
$upscope $end


$scope begin unnamed$$_vcs_2 $end

$scope begin unnamed$$_0 $end
$upscope $end

$upscope $end


$scope module dut $end
$var reg 10 % addr [9:0] $end
$var wire 8 ' data [7:0] $end
$var reg 1 ! clk $end
$var reg 1 * rst_n $end
$var reg 1 # cs $end
$var reg 1 $ wr_rd_n $end
$var reg 8 + data_out [7:0] $end

$scope begin unnamed$$_0 $end
$upscope $end

$upscope $end

$upscope $end

$enddefinitions $end

#0
$dumpvars
0!
x#
1*
0$
1"
b0000000000 %
bxxxxxxxx '
b00000000 (
bxxxxxxxx +
bxxxxxxxx )
bxxxxxxxxxx &
$end
#5000
1!
0"
0*
#10000
0!
#15000
1!
1#
b00000000 +
b00000000 '
#20000
0!
#25000
1!
b0000000001 %
#30000
0!
#35000
1!
b0000000010 %
#40000
0!
#45000
1!
b0000000011 %
#50000
0!
#55000
1!
b0000000100 %
#60000
0!
#65000
1!
b0000000101 %
#70000
0!
#75000
1!
b0000000110 %
#80000
0!
#85000
1!
b0000000111 %
#90000
0!
#95000
1!
b0000001000 %
#100000
0!
#105000
1!
b0000001001 %
#110000
0!
#115000
1!
b0000001010 %
#120000
0!
#125000
1!
b0000001011 %
#130000
0!
#135000
1!
b0000001100 %
#140000
0!
#145000
1!
b0000001101 %
#150000
0!
#155000
1!
b0000001110 %
#160000
0!
#165000
1!
b0000001111 %
#170000
0!
#175000
1!
b0000010000 %
#180000
0!
#185000
1!
b0000010001 %
#190000
0!
#195000
1!
b0000010010 %
#200000
0!
#205000
1!
b0000010011 %
#210000
0!
#215000
1!
b0000010100 %
#220000
0!
#225000
1!
b0000010101 %
#230000
0!
#235000
1!
b0000010110 %
#240000
0!
#245000
1!
b0000010111 %
#250000
0!
#255000
1!
b0000011000 %
#260000
0!
#265000
1!
b0000011001 %
#270000
0!
#275000
1!
b0000011010 %
#280000
0!
#285000
1!
b0000011011 %
#290000
0!
#295000
1!
b0000011100 %
#300000
0!
#305000
1!
b0000011101 %
#310000
0!
#315000
1!
b0000011110 %
#320000
0!
#325000
1!
b0000011111 %
#330000
0!
#335000
1!
b0000100000 %
#340000
0!
#345000
1!
b0000100001 %
#350000
0!
#355000
1!
b0000100010 %
#360000
0!
#365000
1!
b0000100011 %
#370000
0!
#375000
1!
b0000100100 %
#380000
0!
#385000
1!
b0000100101 %
#390000
0!
#395000
1!
b0000100110 %
#400000
0!
#405000
1!
b0000100111 %
#410000
0!
#415000
1!
b0000101000 %
#420000
0!
#425000
1!
b0000101001 %
#430000
0!
#435000
1!
b0000101010 %
#440000
0!
#445000
1!
b0000101011 %
#450000
0!
#455000
1!
b0000101100 %
#460000
0!
#465000
1!
b0000101101 %
#470000
0!
#475000
1!
b0000101110 %
#480000
0!
#485000
1!
b0000101111 %
#490000
0!
#495000
1!
b0000110000 %
#500000
0!
#505000
1!
b0000110001 %
#510000
0!
#515000
1!
b0000110010 %
#520000
0!
#525000
1!
b0000110011 %
#530000
0!
#535000
1!
b0000110100 %
#540000
0!
#545000
1!
b0000110101 %
#550000
0!
#555000
1!
b0000110110 %
#560000
0!
#565000
1!
b0000110111 %
#570000
0!
#575000
1!
b0000111000 %
#580000
0!
#585000
1!
b0000111001 %
#590000
0!
#595000
1!
b0000111010 %
#600000
0!
#605000
1!
b0000111011 %
#610000
0!
#615000
1!
b0000111100 %
#620000
0!
#625000
1!
b0000111101 %
#630000
0!
#635000
1!
b0000111110 %
#640000
0!
#645000
1!
b0000111111 %
#650000
0!
#655000
1!
b0001000000 %
#660000
0!
#665000
1!
b0001000001 %
#670000
0!
#675000
1!
b0001000010 %
#680000
0!
#685000
1!
b0001000011 %
#690000
0!
#695000
1!
b0001000100 %
#700000
0!
#705000
1!
b0001000101 %
#710000
0!
#715000
1!
b0001000110 %
#720000
0!
#725000
1!
b0001000111 %
#730000
0!
#735000
1!
b0001001000 %
#740000
0!
#745000
1!
b0001001001 %
#750000
0!
#755000
1!
b0001001010 %
#760000
0!
#765000
1!
b0001001011 %
#770000
0!
#775000
1!
b0001001100 %
#780000
0!
#785000
1!
b0001001101 %
#790000
0!
#795000
1!
b0001001110 %
#800000
0!
#805000
1!
b0001001111 %
#810000
0!
#815000
1!
b0001010000 %
#820000
0!
#825000
1!
b0001010001 %
#830000
0!
#835000
1!
b0001010010 %
#840000
0!
#845000
1!
b0001010011 %
#850000
0!
#855000
1!
b0001010100 %
#860000
0!
#865000
1!
b0001010101 %
#870000
0!
#875000
1!
b0001010110 %
#880000
0!
#885000
1!
b0001010111 %
#890000
0!
#895000
1!
b0001011000 %
#900000
0!
#905000
1!
b0001011001 %
#910000
0!
#915000
1!
b0001011010 %
#920000
0!
#925000
1!
b0001011011 %
#930000
0!
#935000
1!
b0001011100 %
#940000
0!
#945000
1!
b0001011101 %
#950000
0!
#955000
1!
b0001011110 %
#960000
0!
#965000
1!
b0001011111 %
#970000
0!
#975000
1!
b0001100000 %
#980000
0!
#985000
1!
b0001100001 %
#990000
0!
#995000
1!
b0001100010 %
#1000000
0!
#1005000
1!
b0001100011 %
#1010000
0!
#1015000
1!
b0001100100 %
#1020000
0!
#1025000
1!
b0001100101 %
#1030000
0!
#1035000
1!
b0001100110 %
#1040000
0!
#1045000
1!
b0001100111 %
#1050000
0!
#1055000
1!
b0001101000 %
#1060000
0!
#1065000
1!
b0001101001 %
#1070000
0!
#1075000
1!
b0001101010 %
#1080000
0!
#1085000
1!
b0001101011 %
#1090000
0!
#1095000
1!
b0001101100 %
#1100000
0!
#1105000
1!
b0001101101 %
#1110000
0!
#1115000
1!
b0001101110 %
#1120000
0!
#1125000
1!
b0001101111 %
#1130000
0!
#1135000
1!
b0001110000 %
#1140000
0!
#1145000
1!
b0001110001 %
#1150000
0!
#1155000
1!
b0001110010 %
#1160000
0!
#1165000
1!
b0001110011 %
#1170000
0!
#1175000
1!
b0001110100 %
#1180000
0!
#1185000
1!
b0001110101 %
#1190000
0!
#1195000
1!
b0001110110 %
#1200000
0!
#1205000
1!
b0001110111 %
#1210000
0!
#1215000
1!
b0001111000 %
#1220000
0!
#1225000
1!
b0001111001 %
#1230000
0!
#1235000
1!
b0001111010 %
#1240000
0!
#1245000
1!
b0001111011 %
#1250000
0!
#1255000
1!
b0001111100 %
#1260000
0!
#1265000
1!
b0001111101 %
#1270000
0!
#1275000
1!
b0001111110 %
#1280000
0!
#1285000
1!
b0001111111 %
#1290000
0!
#1295000
1!
b0010000000 %
#1300000
0!
#1305000
1!
b0010000001 %
#1310000
0!
#1315000
1!
b0010000010 %
#1320000
0!
#1325000
1!
b0010000011 %
#1330000
0!
#1335000
1!
b0010000100 %
#1340000
0!
#1345000
1!
b0010000101 %
#1350000
0!
#1355000
1!
b0010000110 %
#1360000
0!
#1365000
1!
b0010000111 %
#1370000
0!
#1375000
1!
b0010001000 %
#1380000
0!
#1385000
1!
b0010001001 %
#1390000
0!
#1395000
1!
b0010001010 %
#1400000
0!
#1405000
1!
b0010001011 %
#1410000
0!
#1415000
1!
b0010001100 %
#1420000
0!
#1425000
1!
b0010001101 %
#1430000
0!
#1435000
1!
b0010001110 %
#1440000
0!
#1445000
1!
b0010001111 %
#1450000
0!
#1455000
1!
b0010010000 %
#1460000
0!
#1465000
1!
b0010010001 %
#1470000
0!
#1475000
1!
b0010010010 %
#1480000
0!
#1485000
1!
b0010010011 %
#1490000
0!
#1495000
1!
b0010010100 %
#1500000
0!
#1505000
1!
b0010010101 %
#1510000
0!
#1515000
1!
b0010010110 %
#1520000
0!
#1525000
1!
b0010010111 %
#1530000
0!
#1535000
1!
b0010011000 %
#1540000
0!
#1545000
1!
b0010011001 %
#1550000
0!
#1555000
1!
b0010011010 %
#1560000
0!
#1565000
1!
b0010011011 %
#1570000
0!
#1575000
1!
b0010011100 %
#1580000
0!
#1585000
1!
b0010011101 %
#1590000
0!
#1595000
1!
b0010011110 %
#1600000
0!
#1605000
1!
b0010011111 %
#1610000
0!
#1615000
1!
b0010100000 %
#1620000
0!
#1625000
1!
b0010100001 %
#1630000
0!
#1635000
1!
b0010100010 %
#1640000
0!
#1645000
1!
b0010100011 %
#1650000
0!
#1655000
1!
b0010100100 %
#1660000
0!
#1665000
1!
b0010100101 %
#1670000
0!
#1675000
1!
b0010100110 %
#1680000
0!
#1685000
1!
b0010100111 %
#1690000
0!
#1695000
1!
b0010101000 %
#1700000
0!
#1705000
1!
b0010101001 %
#1710000
0!
#1715000
1!
b0010101010 %
#1720000
0!
#1725000
1!
b0010101011 %
#1730000
0!
#1735000
1!
b0010101100 %
#1740000
0!
#1745000
1!
b0010101101 %
#1750000
0!
#1755000
1!
b0010101110 %
#1760000
0!
#1765000
1!
b0010101111 %
#1770000
0!
#1775000
1!
b0010110000 %
#1780000
0!
#1785000
1!
b0010110001 %
#1790000
0!
#1795000
1!
b0010110010 %
#1800000
0!
#1805000
1!
b0010110011 %
#1810000
0!
#1815000
1!
b0010110100 %
#1820000
0!
#1825000
1!
b0010110101 %
#1830000
0!
#1835000
1!
b0010110110 %
#1840000
0!
#1845000
1!
b0010110111 %
#1850000
0!
#1855000
1!
b0010111000 %
#1860000
0!
#1865000
1!
b0010111001 %
#1870000
0!
#1875000
1!
b0010111010 %
#1880000
0!
#1885000
1!
b0010111011 %
#1890000
0!
#1895000
1!
b0010111100 %
#1900000
0!
#1905000
1!
b0010111101 %
#1910000
0!
#1915000
1!
b0010111110 %
#1920000
0!
#1925000
1!
b0010111111 %
#1930000
0!
#1935000
1!
b0011000000 %
#1940000
0!
#1945000
1!
b0011000001 %
#1950000
0!
#1955000
1!
b0011000010 %
#1960000
0!
#1965000
1!
b0011000011 %
#1970000
0!
#1975000
1!
b0011000100 %
#1980000
0!
#1985000
1!
b0011000101 %
#1990000
0!
#1995000
1!
b0011000110 %
#2000000
0!
#2005000
1!
b0011000111 %
#2010000
0!
#2015000
1!
b0011001000 %
#2020000
0!
#2025000
1!
b0011001001 %
#2030000
0!
#2035000
1!
b0011001010 %
#2040000
0!
#2045000
1!
b0011001011 %
#2050000
0!
#2055000
1!
b0011001100 %
#2060000
0!
#2065000
1!
b0011001101 %
#2070000
0!
#2075000
1!
b0011001110 %
#2080000
0!
#2085000
1!
b0011001111 %
#2090000
0!
#2095000
1!
b0011010000 %
#2100000
0!
#2105000
1!
b0011010001 %
#2110000
0!
#2115000
1!
b0011010010 %
#2120000
0!
#2125000
1!
b0011010011 %
#2130000
0!
#2135000
1!
b0011010100 %
#2140000
0!
#2145000
1!
b0011010101 %
#2150000
0!
#2155000
1!
b0011010110 %
#2160000
0!
#2165000
1!
b0011010111 %
#2170000
0!
#2175000
1!
b0011011000 %
#2180000
0!
#2185000
1!
b0011011001 %
#2190000
0!
#2195000
1!
b0011011010 %
#2200000
0!
#2205000
1!
b0011011011 %
#2210000
0!
#2215000
1!
b0011011100 %
#2220000
0!
#2225000
1!
b0011011101 %
#2230000
0!
#2235000
1!
b0011011110 %
#2240000
0!
#2245000
1!
b0011011111 %
#2250000
0!
#2255000
1!
b0011100000 %
#2260000
0!
#2265000
1!
b0011100001 %
#2270000
0!
#2275000
1!
b0011100010 %
#2280000
0!
#2285000
1!
b0011100011 %
#2290000
0!
#2295000
1!
b0011100100 %
#2300000
0!
#2305000
1!
b0011100101 %
#2310000
0!
#2315000
1!
b0011100110 %
#2320000
0!
#2325000
1!
b0011100111 %
#2330000
0!
#2335000
1!
b0011101000 %
#2340000
0!
#2345000
1!
b0011101001 %
#2350000
0!
#2355000
1!
b0011101010 %
#2360000
0!
#2365000
1!
b0011101011 %
#2370000
0!
#2375000
1!
b0011101100 %
#2380000
0!
#2385000
1!
b0011101101 %
#2390000
0!
#2395000
1!
b0011101110 %
#2400000
0!
#2405000
1!
b0011101111 %
#2410000
0!
#2415000
1!
b0011110000 %
#2420000
0!
#2425000
1!
b0011110001 %
#2430000
0!
#2435000
1!
b0011110010 %
#2440000
0!
#2445000
1!
b0011110011 %
#2450000
0!
#2455000
1!
b0011110100 %
#2460000
0!
#2465000
1!
b0011110101 %
#2470000
0!
#2475000
1!
b0011110110 %
#2480000
0!
#2485000
1!
b0011110111 %
#2490000
0!
#2495000
1!
b0011111000 %
#2500000
0!
#2505000
1!
b0011111001 %
#2510000
0!
#2515000
1!
b0011111010 %
#2520000
0!
#2525000
1!
b0011111011 %
#2530000
0!
#2535000
1!
b0011111100 %
#2540000
0!
#2545000
1!
b0011111101 %
#2550000
0!
#2555000
1!
b0011111110 %
#2560000
0!
#2565000
1!
b0011111111 %
#2570000
0!
#2575000
1!
b0100000000 %
#2580000
0!
#2585000
1!
b0100000001 %
#2590000
0!
#2595000
1!
b0100000010 %
#2600000
0!
#2605000
1!
b0100000011 %
#2610000
0!
#2615000
1!
b0100000100 %
#2620000
0!
#2625000
1!
b0100000101 %
#2630000
0!
#2635000
1!
b0100000110 %
#2640000
0!
#2645000
1!
b0100000111 %
#2650000
0!
#2655000
1!
b0100001000 %
#2660000
0!
#2665000
1!
b0100001001 %
#2670000
0!
#2675000
1!
b0100001010 %
#2680000
0!
#2685000
1!
b0100001011 %
#2690000
0!
#2695000
1!
b0100001100 %
#2700000
0!
#2705000
1!
b0100001101 %
#2710000
0!
#2715000
1!
b0100001110 %
#2720000
0!
#2725000
1!
b0100001111 %
#2730000
0!
#2735000
1!
b0100010000 %
#2740000
0!
#2745000
1!
b0100010001 %
#2750000
0!
#2755000
1!
b0100010010 %
#2760000
0!
#2765000
1!
b0100010011 %
#2770000
0!
#2775000
1!
b0100010100 %
#2780000
0!
#2785000
1!
b0100010101 %
#2790000
0!
#2795000
1!
b0100010110 %
#2800000
0!
#2805000
1!
b0100010111 %
#2810000
0!
#2815000
1!
b0100011000 %
#2820000
0!
#2825000
1!
b0100011001 %
#2830000
0!
#2835000
1!
b0100011010 %
#2840000
0!
#2845000
1!
b0100011011 %
#2850000
0!
#2855000
1!
b0100011100 %
#2860000
0!
#2865000
1!
b0100011101 %
#2870000
0!
#2875000
1!
b0100011110 %
#2880000
0!
#2885000
1!
b0100011111 %
#2890000
0!
#2895000
1!
b0100100000 %
#2900000
0!
#2905000
1!
b0100100001 %
#2910000
0!
#2915000
1!
b0100100010 %
#2920000
0!
#2925000
1!
b0100100011 %
#2930000
0!
#2935000
1!
b0100100100 %
#2940000
0!
#2945000
1!
b0100100101 %
#2950000
0!
#2955000
1!
b0100100110 %
#2960000
0!
#2965000
1!
b0100100111 %
#2970000
0!
#2975000
1!
b0100101000 %
#2980000
0!
#2985000
1!
b0100101001 %
#2990000
0!
#2995000
1!
b0100101010 %
#3000000
0!
#3005000
1!
b0100101011 %
#3010000
0!
#3015000
1!
b0100101100 %
#3020000
0!
#3025000
1!
b0100101101 %
#3030000
0!
#3035000
1!
b0100101110 %
#3040000
0!
#3045000
1!
b0100101111 %
#3050000
0!
#3055000
1!
b0100110000 %
#3060000
0!
#3065000
1!
b0100110001 %
#3070000
0!
#3075000
1!
b0100110010 %
#3080000
0!
#3085000
1!
b0100110011 %
#3090000
0!
#3095000
1!
b0100110100 %
#3100000
0!
#3105000
1!
b0100110101 %
#3110000
0!
#3115000
1!
b0100110110 %
#3120000
0!
#3125000
1!
b0100110111 %
#3130000
0!
#3135000
1!
b0100111000 %
#3140000
0!
#3145000
1!
b0100111001 %
#3150000
0!
#3155000
1!
b0100111010 %
#3160000
0!
#3165000
1!
b0100111011 %
#3170000
0!
#3175000
1!
b0100111100 %
#3180000
0!
#3185000
1!
b0100111101 %
#3190000
0!
#3195000
1!
b0100111110 %
#3200000
0!
#3205000
1!
b0100111111 %
#3210000
0!
#3215000
1!
b0101000000 %
#3220000
0!
#3225000
1!
b0101000001 %
#3230000
0!
#3235000
1!
b0101000010 %
#3240000
0!
#3245000
1!
b0101000011 %
#3250000
0!
#3255000
1!
b0101000100 %
#3260000
0!
#3265000
1!
b0101000101 %
#3270000
0!
#3275000
1!
b0101000110 %
#3280000
0!
#3285000
1!
b0101000111 %
#3290000
0!
#3295000
1!
b0101001000 %
#3300000
0!
#3305000
1!
b0101001001 %
#3310000
0!
#3315000
1!
b0101001010 %
#3320000
0!
#3325000
1!
b0101001011 %
#3330000
0!
#3335000
1!
b0101001100 %
#3340000
0!
#3345000
1!
b0101001101 %
#3350000
0!
#3355000
1!
b0101001110 %
#3360000
0!
#3365000
1!
b0101001111 %
#3370000
0!
#3375000
1!
b0101010000 %
#3380000
0!
#3385000
1!
b0101010001 %
#3390000
0!
#3395000
1!
b0101010010 %
#3400000
0!
#3405000
1!
b0101010011 %
#3410000
0!
#3415000
1!
b0101010100 %
#3420000
0!
#3425000
1!
b0101010101 %
#3430000
0!
#3435000
1!
b0101010110 %
#3440000
0!
#3445000
1!
b0101010111 %
#3450000
0!
#3455000
1!
b0101011000 %
#3460000
0!
#3465000
1!
b0101011001 %
#3470000
0!
#3475000
1!
b0101011010 %
#3480000
0!
#3485000
1!
b0101011011 %
#3490000
0!
#3495000
1!
b0101011100 %
#3500000
0!
#3505000
1!
b0101011101 %
#3510000
0!
#3515000
1!
b0101011110 %
#3520000
0!
#3525000
1!
b0101011111 %
#3530000
0!
#3535000
1!
b0101100000 %
#3540000
0!
#3545000
1!
b0101100001 %
#3550000
0!
#3555000
1!
b0101100010 %
#3560000
0!
#3565000
1!
b0101100011 %
#3570000
0!
#3575000
1!
b0101100100 %
#3580000
0!
#3585000
1!
b0101100101 %
#3590000
0!
#3595000
1!
b0101100110 %
#3600000
0!
#3605000
1!
b0101100111 %
#3610000
0!
#3615000
1!
b0101101000 %
#3620000
0!
#3625000
1!
b0101101001 %
#3630000
0!
#3635000
1!
b0101101010 %
#3640000
0!
#3645000
1!
b0101101011 %
#3650000
0!
#3655000
1!
b0101101100 %
#3660000
0!
#3665000
1!
b0101101101 %
#3670000
0!
#3675000
1!
b0101101110 %
#3680000
0!
#3685000
1!
b0101101111 %
#3690000
0!
#3695000
1!
b0101110000 %
#3700000
0!
#3705000
1!
b0101110001 %
#3710000
0!
#3715000
1!
b0101110010 %
#3720000
0!
#3725000
1!
b0101110011 %
#3730000
0!
#3735000
1!
b0101110100 %
#3740000
0!
#3745000
1!
b0101110101 %
#3750000
0!
#3755000
1!
b0101110110 %
#3760000
0!
#3765000
1!
b0101110111 %
#3770000
0!
#3775000
1!
b0101111000 %
#3780000
0!
#3785000
1!
b0101111001 %
#3790000
0!
#3795000
1!
b0101111010 %
#3800000
0!
#3805000
1!
b0101111011 %
#3810000
0!
#3815000
1!
b0101111100 %
#3820000
0!
#3825000
1!
b0101111101 %
#3830000
0!
#3835000
1!
b0101111110 %
#3840000
0!
#3845000
1!
b0101111111 %
#3850000
0!
#3855000
1!
b0110000000 %
#3860000
0!
#3865000
1!
b0110000001 %
#3870000
0!
#3875000
1!
b0110000010 %
#3880000
0!
#3885000
1!
b0110000011 %
#3890000
0!
#3895000
1!
b0110000100 %
#3900000
0!
#3905000
1!
b0110000101 %
#3910000
0!
#3915000
1!
b0110000110 %
#3920000
0!
#3925000
1!
b0110000111 %
#3930000
0!
#3935000
1!
b0110001000 %
#3940000
0!
#3945000
1!
b0110001001 %
#3950000
0!
#3955000
1!
b0110001010 %
#3960000
0!
#3965000
1!
b0110001011 %
#3970000
0!
#3975000
1!
b0110001100 %
#3980000
0!
#3985000
1!
b0110001101 %
#3990000
0!
#3995000
1!
b0110001110 %
#4000000
0!
#4005000
1!
b0110001111 %
#4010000
0!
#4015000
1!
b0110010000 %
#4020000
0!
#4025000
1!
b0110010001 %
#4030000
0!
#4035000
1!
b0110010010 %
#4040000
0!
#4045000
1!
b0110010011 %
#4050000
0!
#4055000
1!
b0110010100 %
#4060000
0!
#4065000
1!
b0110010101 %
#4070000
0!
#4075000
1!
b0110010110 %
#4080000
0!
#4085000
1!
b0110010111 %
#4090000
0!
#4095000
1!
b0110011000 %
#4100000
0!
#4105000
1!
b0110011001 %
#4110000
0!
#4115000
1!
b0110011010 %
#4120000
0!
#4125000
1!
b0110011011 %
#4130000
0!
#4135000
1!
b0110011100 %
#4140000
0!
#4145000
1!
b0110011101 %
#4150000
0!
#4155000
1!
b0110011110 %
#4160000
0!
#4165000
1!
b0110011111 %
#4170000
0!
#4175000
1!
b0110100000 %
#4180000
0!
#4185000
1!
b0110100001 %
#4190000
0!
#4195000
1!
b0110100010 %
#4200000
0!
#4205000
1!
b0110100011 %
#4210000
0!
#4215000
1!
b0110100100 %
#4220000
0!
#4225000
1!
b0110100101 %
#4230000
0!
#4235000
1!
b0110100110 %
#4240000
0!
#4245000
1!
b0110100111 %
#4250000
0!
#4255000
1!
b0110101000 %
#4260000
0!
#4265000
1!
b0110101001 %
#4270000
0!
#4275000
1!
b0110101010 %
#4280000
0!
#4285000
1!
b0110101011 %
#4290000
0!
#4295000
1!
b0110101100 %
#4300000
0!
#4305000
1!
b0110101101 %
#4310000
0!
#4315000
1!
b0110101110 %
#4320000
0!
#4325000
1!
b0110101111 %
#4330000
0!
#4335000
1!
b0110110000 %
#4340000
0!
#4345000
1!
b0110110001 %
#4350000
0!
#4355000
1!
b0110110010 %
#4360000
0!
#4365000
1!
b0110110011 %
#4370000
0!
#4375000
1!
b0110110100 %
#4380000
0!
#4385000
1!
b0110110101 %
#4390000
0!
#4395000
1!
b0110110110 %
#4400000
0!
#4405000
1!
b0110110111 %
#4410000
0!
#4415000
1!
b0110111000 %
#4420000
0!
#4425000
1!
b0110111001 %
#4430000
0!
#4435000
1!
b0110111010 %
#4440000
0!
#4445000
1!
b0110111011 %
#4450000
0!
#4455000
1!
b0110111100 %
#4460000
0!
#4465000
1!
b0110111101 %
#4470000
0!
#4475000
1!
b0110111110 %
#4480000
0!
#4485000
1!
b0110111111 %
#4490000
0!
#4495000
1!
b0111000000 %
#4500000
0!
#4505000
1!
b0111000001 %
#4510000
0!
#4515000
1!
b0111000010 %
#4520000
0!
#4525000
1!
b0111000011 %
#4530000
0!
#4535000
1!
b0111000100 %
#4540000
0!
#4545000
1!
b0111000101 %
#4550000
0!
#4555000
1!
b0111000110 %
#4560000
0!
#4565000
1!
b0111000111 %
#4570000
0!
#4575000
1!
b0111001000 %
#4580000
0!
#4585000
1!
b0111001001 %
#4590000
0!
#4595000
1!
b0111001010 %
#4600000
0!
#4605000
1!
b0111001011 %
#4610000
0!
#4615000
1!
b0111001100 %
#4620000
0!
#4625000
1!
b0111001101 %
#4630000
0!
#4635000
1!
b0111001110 %
#4640000
0!
#4645000
1!
b0111001111 %
#4650000
0!
#4655000
1!
b0111010000 %
#4660000
0!
#4665000
1!
b0111010001 %
#4670000
0!
#4675000
1!
b0111010010 %
#4680000
0!
#4685000
1!
b0111010011 %
#4690000
0!
#4695000
1!
b0111010100 %
#4700000
0!
#4705000
1!
b0111010101 %
#4710000
0!
#4715000
1!
b0111010110 %
#4720000
0!
#4725000
1!
b0111010111 %
#4730000
0!
#4735000
1!
b0111011000 %
#4740000
0!
#4745000
1!
b0111011001 %
#4750000
0!
#4755000
1!
b0111011010 %
#4760000
0!
#4765000
1!
b0111011011 %
#4770000
0!
#4775000
1!
b0111011100 %
#4780000
0!
#4785000
1!
b0111011101 %
#4790000
0!
#4795000
1!
b0111011110 %
#4800000
0!
#4805000
1!
b0111011111 %
#4810000
0!
#4815000
1!
b0111100000 %
#4820000
0!
#4825000
1!
b0111100001 %
#4830000
0!
#4835000
1!
b0111100010 %
#4840000
0!
#4845000
1!
b0111100011 %
#4850000
0!
#4855000
1!
b0111100100 %
#4860000
0!
#4865000
1!
b0111100101 %
#4870000
0!
#4875000
1!
b0111100110 %
#4880000
0!
#4885000
1!
b0111100111 %
#4890000
0!
#4895000
1!
b0111101000 %
#4900000
0!
#4905000
1!
b0111101001 %
#4910000
0!
#4915000
1!
b0111101010 %
#4920000
0!
#4925000
1!
b0111101011 %
#4930000
0!
#4935000
1!
b0111101100 %
#4940000
0!
#4945000
1!
b0111101101 %
#4950000
0!
#4955000
1!
b0111101110 %
#4960000
0!
#4965000
1!
b0111101111 %
#4970000
0!
#4975000
1!
b0111110000 %
#4980000
0!
#4985000
1!
b0111110001 %
#4990000
0!
#4995000
1!
b0111110010 %
#5000000
0!
#5005000
1!
b0111110011 %
#5010000
0!
#5015000
1!
b0111110100 %
#5020000
0!
#5025000
1!
b0111110101 %
#5030000
0!
#5035000
1!
b0111110110 %
#5040000
0!
#5045000
1!
b0111110111 %
#5050000
0!
#5055000
1!
b0111111000 %
#5060000
0!
#5065000
1!
b0111111001 %
#5070000
0!
#5075000
1!
b0111111010 %
#5080000
0!
#5085000
1!
b0111111011 %
#5090000
0!
#5095000
1!
b0111111100 %
#5100000
0!
#5105000
1!
b0111111101 %
#5110000
0!
#5115000
1!
b0111111110 %
#5120000
0!
#5125000
1!
b0111111111 %
#5130000
0!
#5135000
1!
b1000000000 %
#5140000
0!
#5145000
1!
b1000000001 %
#5150000
0!
#5155000
1!
b1000000010 %
#5160000
0!
#5165000
1!
b1000000011 %
#5170000
0!
#5175000
1!
b1000000100 %
#5180000
0!
#5185000
1!
b1000000101 %
#5190000
0!
#5195000
1!
b1000000110 %
#5200000
0!
#5205000
1!
b1000000111 %
#5210000
0!
#5215000
1!
b1000001000 %
#5220000
0!
#5225000
1!
b1000001001 %
#5230000
0!
#5235000
1!
b1000001010 %
#5240000
0!
#5245000
1!
b1000001011 %
#5250000
0!
#5255000
1!
b1000001100 %
#5260000
0!
#5265000
1!
b1000001101 %
#5270000
0!
#5275000
1!
b1000001110 %
#5280000
0!
#5285000
1!
b1000001111 %
#5290000
0!
#5295000
1!
b1000010000 %
#5300000
0!
#5305000
1!
b1000010001 %
#5310000
0!
#5315000
1!
b1000010010 %
#5320000
0!
#5325000
1!
b1000010011 %
#5330000
0!
#5335000
1!
b1000010100 %
#5340000
0!
#5345000
1!
b1000010101 %
#5350000
0!
#5355000
1!
b1000010110 %
#5360000
0!
#5365000
1!
b1000010111 %
#5370000
0!
#5375000
1!
b1000011000 %
#5380000
0!
#5385000
1!
b1000011001 %
#5390000
0!
#5395000
1!
b1000011010 %
#5400000
0!
#5405000
1!
b1000011011 %
#5410000
0!
#5415000
1!
b1000011100 %
#5420000
0!
#5425000
1!
b1000011101 %
#5430000
0!
#5435000
1!
b1000011110 %
#5440000
0!
#5445000
1!
b1000011111 %
#5450000
0!
#5455000
1!
b1000100000 %
#5460000
0!
#5465000
1!
b1000100001 %
#5470000
0!
#5475000
1!
b1000100010 %
#5480000
0!
#5485000
1!
b1000100011 %
#5490000
0!
#5495000
1!
b1000100100 %
#5500000
0!
#5505000
1!
b1000100101 %
#5510000
0!
#5515000
1!
b1000100110 %
#5520000
0!
#5525000
1!
b1000100111 %
#5530000
0!
#5535000
1!
b1000101000 %
#5540000
0!
#5545000
1!
b1000101001 %
#5550000
0!
#5555000
1!
b1000101010 %
#5560000
0!
#5565000
1!
b1000101011 %
#5570000
0!
#5575000
1!
b1000101100 %
#5580000
0!
#5585000
1!
b1000101101 %
#5590000
0!
#5595000
1!
b1000101110 %
#5600000
0!
#5605000
1!
b1000101111 %
#5610000
0!
#5615000
1!
b1000110000 %
#5620000
0!
#5625000
1!
b1000110001 %
#5630000
0!
#5635000
1!
b1000110010 %
#5640000
0!
#5645000
1!
b1000110011 %
#5650000
0!
#5655000
1!
b1000110100 %
#5660000
0!
#5665000
1!
b1000110101 %
#5670000
0!
#5675000
1!
b1000110110 %
#5680000
0!
#5685000
1!
b1000110111 %
#5690000
0!
#5695000
1!
b1000111000 %
#5700000
0!
#5705000
1!
b1000111001 %
#5710000
0!
#5715000
1!
b1000111010 %
#5720000
0!
#5725000
1!
b1000111011 %
#5730000
0!
#5735000
1!
b1000111100 %
#5740000
0!
#5745000
1!
b1000111101 %
#5750000
0!
#5755000
1!
b1000111110 %
#5760000
0!
#5765000
1!
b1000111111 %
#5770000
0!
#5775000
1!
b1001000000 %
#5780000
0!
#5785000
1!
b1001000001 %
#5790000
0!
#5795000
1!
b1001000010 %
#5800000
0!
#5805000
1!
b1001000011 %
#5810000
0!
#5815000
1!
b1001000100 %
#5820000
0!
#5825000
1!
b1001000101 %
#5830000
0!
#5835000
1!
b1001000110 %
#5840000
0!
#5845000
1!
b1001000111 %
#5850000
0!
#5855000
1!
b1001001000 %
#5860000
0!
#5865000
1!
b1001001001 %
#5870000
0!
#5875000
1!
b1001001010 %
#5880000
0!
#5885000
1!
b1001001011 %
#5890000
0!
#5895000
1!
b1001001100 %
#5900000
0!
#5905000
1!
b1001001101 %
#5910000
0!
#5915000
1!
b1001001110 %
#5920000
0!
#5925000
1!
b1001001111 %
#5930000
0!
#5935000
1!
b1001010000 %
#5940000
0!
#5945000
1!
b1001010001 %
#5950000
0!
#5955000
1!
b1001010010 %
#5960000
0!
#5965000
1!
b1001010011 %
#5970000
0!
#5975000
1!
b1001010100 %
#5980000
0!
#5985000
1!
b1001010101 %
#5990000
0!
#5995000
1!
b1001010110 %
#6000000
0!
#6005000
1!
b1001010111 %
#6010000
0!
#6015000
1!
b1001011000 %
#6020000
0!
#6025000
1!
b1001011001 %
#6030000
0!
#6035000
1!
b1001011010 %
#6040000
0!
#6045000
1!
b1001011011 %
#6050000
0!
